{
  "images" : [
    {
      "idiom" : "universal",
      "filename" : "Oval 88 Copy 16 + Search Copy 22-1.png",
      "scale" : "1x"
    },
    {
      "idiom" : "universal",
      "filename" : "Oval 88 Copy 16 + Search Copy 22.png",
      "scale" : "2x"
    },
    {
      "idiom" : "universal",
      "filename" : "Oval 88 Copy 16 + Search Copy 22-2.png",
      "scale" : "3x"
    }
  ],
  "info" : {
    "version" : 1,
    "author" : "xcode"
  }
}