[
	
 
 {"name":"Singapore","alpha-2":"SG","country-code":"702",
 "phone-code":"+65","currency":"sgd"},

 {"name":"India","alpha-2":"IND","country-code":"356",
 "phone-code":"+91","currency":"inr"},
 
 {"name":"China", "alpha-2":"CN","country-code":"156",
 "phone-code":"+86","currency":"cny"},
 
 {"name":"Hong Kong","alpha-2":"HK","country-code":"344",
 "phone-code":"+852","currency":"hkd"},
 
 {"name":"Indonesia","alpha-2":"ID","country-code":"360",
 "phone-code":"+62","currency":"idr"},
 
 {"name":"Japan","alpha-2":"JP","country-code":"392",
 "phone-code":"+81","currency":"jpy"},
 
 {"name":"South Korea","alpha-2":"KR","country-code":"410",
 "phone-code":"+82","currency":"krw"},
 
 {"name":"Taiwan","alpha-2":"TW","country-code":"158",
 "phone-code":"+886","currency":"twd"},
 
 {"name":"Thailand","alpha-2":"TH","country-code":"764",
 "phone-code":"+66","currency":"thb"},

  {"name":"France","alpha-2":"FRA","country-code":"250",
 "phone-code":"+33","currency":"EUR"},

  {"name":"Australia","alpha-2":"AUS","country-code":"36",
 "phone-code":"+61","currency":"aud"},
 
 {"name":"United Kingdom","alpha-2":"GB","country-code":"826",
 "phone-code":"+44","currency":"GBP"},
 
 {"name":"United States","alpha-2":"US","country-code":"840",
 "phone-code":"+1","currency":"USD"},
 
 {"name":"Malaysia","alpha-2":"MY","country-code":"458",
 "phone-code":"+60","currency":"MYR"}]
	
	